Flint Water Crisis
…
Which ZIP code had the most samples drawn?

Part 2

Next, lets look at the mean and median lead contaminant values for each zip code and draw combination. We have eight zip codes and samples taken at three times. How many combinations do we have?

flint %>% 
  group_by(zip, draw) %>% 
  summarise(mean_pb = mean(lead))

## `summarise()` has grouped output by 'zip'. You can override using the `.groups` argument.

## # A tibble: 24 x 3
## # Groups:   zip [8]
##      zip draw   mean_pb
##    <dbl> <chr>    <dbl>
##  1 48502 first     2.27
##  2 48502 second    2.81
##  3 48502 third     3.05
##  4 48503 first    11.0 
##  5 48503 second    5.66
##  6 48503 third     3.77
##  7 48504 first    13.2 
##  8 48504 second   32.6 
##  9 48504 third     5.13
## 10 48505 first     6.09
## #  with 14 more rows

flint %>% 
  group_by(zip, draw) %>% 
  summarise(median_pb = median(lead))

## `summarise()` has grouped output by 'zip'. You can override using the `.groups` argument.

## # A tibble: 24 x 3
## # Groups:   zip [8]
##      zip draw   median_pb
##    <dbl> <chr>      <dbl>
##  1 48502 first      2.27 
##  2 48502 second     2.81 
##  3 48502 third      3.05 
##  4 48503 first      5.15 
##  5 48503 second     2.47 
##  6 48503 third      1.23 
##  7 48504 first      2.83 
##  8 48504 second     1.22 
##  9 48504 third      0.744
## 10 48505 first      3.32 
## #  with 14 more rows
…
